D:\Resources_Workspaces\JAVA-EE\tournament-dao\src\test\java\py\com\yensei\tournament\dao\test\TestJPA.java
D:\Resources_Workspaces\JAVA-EE\tournament-dao\src\test\java\py\com\yensei\tournament\dao\test\TestUsuarioNegocio.java
D:\Resources_Workspaces\JAVA-EE\tournament-dao\src\test\java\py\com\yensei\tournament\dao\util\test\TestFechaUtil.java
